…
    # A tibble: 1 x 11
      r.squared adj.r.squared sigma statistic p.value    df logLik   AIC   BIC
          <dbl>         <dbl> <dbl>     <dbl>   <dbl> <int>  <dbl> <dbl> <dbl>
    1    0.0273        0.0124 0.209      1.84   0.142     4   31.4 -52.8 -36.3
    # ... with 2 more variables: deviance <dbl>, df.residual <int>

### `get_regression_points()` and `broom::augment()`

``` r
get_regression_points(model1_interaction)
```

    # A tibble: 200 x 6
          ID logbmi dm_status drinks_wk logbmi_hat residual
       <int>  <dbl> <fct>         <dbl>      <dbl>    <dbl>
     1     1   3.24 Yes            0          3.41   -0.167
     2     2   3.59 No             0          3.32    0.269
     3     3   3.47 No             2.33       3.32    0.147
     4     4   3.15 No             2.8        3.32   -0.173
     5     5   3.91 No             0.23       3.32    0.586
     6     6   3.58 No            16.8        3.33    0.252
     7     7   3.40 No             0          3.32    0.071
     8     8   3.35 No             0          3.32    0.026
     9     9   3.20 No             0          3.32   -0.124
    10    10   3.53 No             0          3.32    0.206
    # ... with 190 more rows

The `get_regression_points()` function is, of course, similar to what we
get from `broom`’s `augment()`.

``` r
augment(model1_interaction)
```

    # A tibble: 200 x 10
       logbmi dm_status drinks_wk .fitted .se.fit  .resid    .hat .sigma .cooksd
        <dbl> <fct>         <dbl>   <dbl>   <dbl>   <dbl>   <dbl>  <dbl>   <dbl>
     1   3.24 Yes            0       3.41  0.0375 -0.167  0.0321   0.209 5.51e-3
     2   3.59 No             0       3.32  0.0177  0.269  0.00714  0.209 3.01e-3
     3   3.47 No             2.33    3.33  0.0162  0.147  0.00599  0.209 7.47e-4
     4   3.15 No             2.8     3.33  0.0163 -0.173  0.00605  0.209 1.05e-3
     5   3.91 No             0.23    3.32  0.0174  0.586  0.00692  0.205 1.38e-2
     6   3.58 No            16.8     3.33  0.0481  0.252  0.0530   0.209 2.15e-2
     7   3.40 No             0       3.32  0.0177  0.0706 0.00714  0.209 2.07e-4
     8   3.35 No             0       3.32  0.0177  0.0260 0.00714  0.209 2.81e-5
     9   3.20 No             0       3.32  0.0177 -0.124  0.00714  0.209 6.37e-4
    10   3.53 No             0       3.32  0.0177  0.206  0.00714  0.209 1.76e-3
    # ... with 190 more rows, and 1 more variable: .std.resid <dbl>
…
