…
## Combining the Data

``` r
bradley_raw <- bind_rows(dat_cases, dat_controls)
bradley_raw$subject <- sample(1:nrow(bradley_raw))

bradley <- bradley_raw %>%
    select(subject, everything()) %>%
    arrange(subject)

bradley
```

    # A tibble: 1,374 x 7
       subject status    age sex   race_eth married location
         <int> <chr>   <dbl> <chr> <chr>      <dbl> <chr>   
     1       1 Control    64 Male  white          1 Bed     
     2       2 Case       70 Male  white          1 ICU     
     3       3 Control    68 Male  white          0 Bed     
     4       4 Control    76 Male  white          1 Bed     
     5       5 Control    70 Male  white          1 Bed     
     6       6 Case       89 Male  white          1 Other   
     7       7 Control    75 Male  white          0 Bed     
     8       8 Control    84 Male  white          1 Bed     
     9       9 Control    80 Male  white          1 ICU     
    10      10 Control    89 Male  white          0 Bed     
    # ... with 1,364 more rows
…
