…
Read the `phr.csv` data into R, and clean the names.

``` r
phr <- read_csv(here("data", "phr.csv")) %>%
    clean_names()

phr
```

    # A tibble: 10,746 x 20
          id   age female caucasian insurance income engagement  user logins
       <dbl> <dbl>  <dbl>     <dbl>     <dbl>  <dbl>      <dbl> <dbl>  <dbl>
     1     1  69.9      0         1         0  38518      0.322     0      0
     2     2  36.8      0         0         1  66989      0.667     1     16
     3     3  39        1         1         1  52954      0.306     1     28
     4     4  60.3      0         1         1  47258      0.382     0      0
     5     5  73.3      1         1         0  46955      0.37      1      1
     6     6  52        1         1         1  97002      0.521     1     11
     7     7  65.4      1         1         0  44096      0.516     0      0
     8     8  66.6      0         1         0  55781      0.382     1     10
     9     9  52.2      1         1         0  47258      0.515     1      2
    10    10  70.1      1         1         0  69401      0.25      0      0
    # ... with 10,736 more rows, and 11 more variables: eye_exam <dbl>,
    #   pneumo_vaccine <dbl>, ace_arb_alb <dbl>, foot_exam <dbl>, nonsmoker <dbl>,
    #   hba1c_test <dbl>, hba1c <dbl>, sbp <dbl>, dbp <dbl>, ldl <dbl>, bmi <dbl>
…
